*** Life<FredkinCell> 5x5 ***

Generation = 0, Population = 9.
-0-00
00--0
-----
0----
0-0--

Generation = 5, Population = 7.
0---0
1-0-2
--3--
-----
--2--

*** Life<FredkinCell> 5x5 ***

Generation = 0, Population = 10.
0----
000--
-00-0
0--0-
-0---

Generation = 5, Population = 9.
-----
0-1-2
1-3-1
-----
1-4-3

*** Life<FredkinCell> 5x5 ***

Generation = 0, Population = 8.
---0-
-----
-000-
0----
0--00

Generation = 5, Population = 10.
2---1
0-0-0
--0--
3-4-1
--4--

*** Life<FredkinCell> 5x5 ***

Generation = 0, Population = 8.
0-0--
-----
----0
00-0-
0-0--

Generation = 5, Population = 15.
---0-
1-0-0
1-300
1-4-1
3-001

*** Life<FredkinCell> 5x5 ***

Generation = 0, Population = 8.
-00-0
-00-0
-----
--0--
----0

Generation = 5, Population = 13.
1310-
-----
-2-00
3-3-1
-1-01

*** Life<FredkinCell> 5x5 ***

Generation = 0, Population = 7.
-00--
---00
--0--
-0--0
-----

Generation = 5, Population = 7.
----4
-----
3-3--
2-1-2
----0

*** Life<FredkinCell> 5x5 ***

Generation = 0, Population = 9.
000--
--0-0
-----
-00--
-0--0

Generation = 5, Population = 9.
-----
-----
1-3-2
4-5-1
0-1-0

*** Life<FredkinCell> 5x5 ***

Generation = 0, Population = 8.
0----
--00-
-----
0-000
--0--

Generation = 5, Population = 15.
0-201
1-3-2
---0-
2-1-2
1-302

*** Life<FredkinCell> 5x5 ***

Generation = 0, Population = 9.
---0-
-0-00
----0
00-00
-----

Generation = 5, Population = 13.
0--5-
2-3-1
1--2-
2-0-0
--022

*** Life<FredkinCell> 5x5 ***

Generation = 0, Population = 8.
0---0
0-0--
-000-
-----
----0

Generation = 5, Population = 12.
3--40
1-3-2
0--52
-----
0--22

*** Life<FredkinCell> 5x5 ***

Generation = 0, Population = 9.
0--0-
----0
----0
--000
-0--0

Generation = 5, Population = 7.
-42--
-----
-34--
-----
01--3

*** Life<FredkinCell> 5x5 ***

Generation = 0, Population = 10.
-0---
0----
000-0
0-00-
-0---

Generation = 5, Population = 10.
----3
3-1-1
----0
2-0-1
3-1--

*** Life<FredkinCell> 5x5 ***

Generation = 0, Population = 7.
--00-
---0-
00---
-----
-0--0

Generation = 5, Population = 6.
--3-2
-----
--0-0
-----
--2-0

*** Life<FredkinCell> 5x5 ***

Generation = 0, Population = 9.
00--0
0--00
0--0-
----0
-----

Generation = 5, Population = 13.
0--12
0-0-0
--43-
4-1-1
--03-

*** Life<FredkinCell> 5x5 ***

Generation = 0, Population = 7.
0---0
0----
0----
0---0
----0

Generation = 5, Population = 9.
2-0-0
2-3-2
1-3-1
-----
-----

*** Life<FredkinCell> 10x10 ***

Generation = 0, Population = 98.
0000000000
0000000000
0000000000
000000000-
0000000000
0000000000
000000-000
0000000000
0000000000
0000000000

Generation = 5, Population = 63.
--131131--
--1-0011--
11-2--0-10
3-2--00134
10-1-01000
1001--3-03
310013-2--
1102--2--2
--1-01-0-2
--131121--

*** Life<FredkinCell> 10x10 ***

Generation = 0, Population = 97.
0000000000
0000000000
0000000000
0000000000
00000-0000
0000000000
00000000-0
00000-0000
0000000000
0000000000

Generation = 5, Population = 54.
--13-3-1--
--1-0--10-
11-2-1103-
312--1013-
-101-03--2
1--20-1---
31200----2
-303103-32
-01---11-3
--13---1--
