*** Life<Cell> 3x5 ***

Generation = 0, Population = 15.
00000
00000
00000

Generation = 3, Population = 6.
0.-.0
1---1
0.-.0

Generation = 6, Population = 6.
1.-.1
-0-0-
1.-.1

Generation = 9, Population = 2.
-.-.-
1---1
-.-.-

Generation = 12, Population = 6.
1.-.1
-0-0-
1.-.1

Generation = 15, Population = 2.
-.-.-
1---1
-.-.-

*** Life<Cell> 6x9 ***

Generation = 0, Population = 32.
-00---00-
-000-0--0
-0-00-00-
0-000-000
-00000---
00000--0-

Generation = 4, Population = 26.
11-1----0
-..-----0
-.01010-1
0-10.*0**
*----*-1-
*--**--11

Generation = 8, Population = 27.
.*--*0-1.
-.*-110.0
..1.-.-*1
-01****.*
*-*--.--1
.-**.*-**

Generation = 12, Population = 16.
..-*.-**.
-.*--.*..
.**..*0*.
1*...*...
.1.-0..--
.-....1..

Generation = 16, Population = 14.
..*......
1**1-**..
......*..
.........
.**-*..--
..***.-..

*** Life<Cell> 7x1 ***

Generation = 0, Population = 3.
0
0
-
0
-
-
-

Generation = 4, Population = 2.
.
.
-
-
0
0
-

Generation = 8, Population = 3.
.
.
-
.
*
*
1

Generation = 12, Population = 0.
.
.
-
.
.
.
.

Generation = 16, Population = 0.
.
.
-
.
.
.
.

Generation = 20, Population = 0.
.
.
-
.
.
.
.

*** Life<Cell> 1x9 ***

Generation = 0, Population = 9.
000000000

Generation = 4, Population = 2.
---0-0---

Generation = 8, Population = 2.
-0-----0-

Generation = 12, Population = 4.
-0-0-0-0-

Generation = 16, Population = 2.
---0-0---

*** Life<Cell> 4x6 ***

Generation = 0, Population = 20.
000000
000-00
000--0
00-000

Generation = 2, Population = 12.
-*-0--
*0-1--
*0-0--
001*--

Generation = 4, Population = 15.
0.-*-0
*----1
**10-0
0*1*-0

Generation = 6, Population = 8.
*.**--
.-----
..*-00
-.**--

Generation = 8, Population = 7.
...**-
.-----
...-**
-.*.0*

Generation = 10, Population = 11.
....**
.-1*0-
..*1.*
-..*0*

Generation = 12, Population = 7.
....**
.-1.--
...*.*
-.**-.

*** Life<Cell> 8x6 ***

Generation = 0, Population = 18.
00-0--
--00--
-0-000
-0--0-
--0-0-
------
--0-0-
-000--

Generation = 4, Population = 28.
-*1**0
*-*--1
**1-*-
0-00-1
**--*.
-0--0-
-11101
*-.-*-

Generation = 8, Population = 20.
-****1
*1.*-.
.*...1
0*0.-*
.*0-..
-1-*--
-----*
.-.1.-

Generation = 12, Population = 22.
1..**.
**.*-*
.*.*..
-.1.-.
.*-1..
1**.-.
-**1*.
.***.-

*** Life<Cell> 7x2 ***

Generation = 0, Population = 14.
00
00
00
00
00
00
00

Generation = 1, Population = 10.
--
11
11
11
11
11
--

Generation = 2, Population = 10.
00
--
**
**
**
--
00

Generation = 3, Population = 8.
11
--
**
..
**
--
11

Generation = 4, Population = 4.
**
--
..
..
..
--
**

Generation = 5, Population = 4.
..
11
..
..
..
11
..

Generation = 6, Population = 4.
..
**
..
..
..
**
..

Generation = 7, Population = 0.
..
..
..
..
..
..
..

Generation = 8, Population = 0.
..
..
..
..
..
..
..

Generation = 9, Population = 0.
..
..
..
..
..
..
..

Generation = 10, Population = 0.
..
..
..
..
..
..
..

Generation = 11, Population = 0.
..
..
..
..
..
..
..

Generation = 12, Population = 0.
..
..
..
..
..
..
..

Generation = 13, Population = 0.
..
..
..
..
..
..
..

*** Life<Cell> 4x5 ***

Generation = 0, Population = 18.
-000-
00000
00000
00000

Generation = 4, Population = 10.
--*--
-1-1-
*0-0*
1.*.1

Generation = 8, Population = 9.
-1.1-
1.-.1
**1**
.....

Generation = 12, Population = 4.
--.--
..-..
..-..
**.**

*** Life<Cell> 3x8 ***

Generation = 0, Population = 24.
00000000
00000000
00000000

Generation = 5, Population = 12.
-.****.-
--0110--
-.****.-

Generation = 10, Population = 2.
-......-
*-.--.-*
-......-

*** Life<Cell> 8x8 ***

Generation = 0, Population = 40.
000-0000
0---000-
00-0-0-0
0-0-0000
0000---0
000---0-
00-0--0-
00000---

Generation = 1, Population = 36.
--1--111
-00----0
110----1
--1-11-1
11-1-001
1--0-01-
11-1-010
-1-1100-

Generation = 2, Population = 35.
--*00*--
--10-0--
**10000-
-0*0*-0-
-*0*011-
-00--1*0
----01-1
-*---1--

Generation = 3, Population = 32.
-0*1-*1-
0-*1----
*.--11-1
-1.-.--1
1.-.1**-
1---0*.-
--011*1*
0.0--*00

Generation = 4, Population = 29.
-1.--.*1
10.---00
*.1-**-*
0-.-.--*
**-.-.*-
*00-1..0
-1--*.**
-*1--.1-

Generation = 5, Population = 28.
-*.--.*-
--*-0--1
*.--.*0*
--.-.1-*
..-.1.*1
.-1-*..1
--01..**
0**11**-

Generation = 6, Population = 28.
0..-0..-
1-.---0*
..1-**-*
0-.-**-.
..0**..*
.0*0*..-
1-1-...*
1*.*-**-

Generation = 7, Population = 25.
1..1-..1
*0.---1*
.*--*.0*
-1*-..0.
..-.....
.1.1*..-
*-*1.**.
-**.-.*-

Generation = 8, Population = 32.
**.-0.**
*-*100-.
..-0..1.
0-*0.*1*
.*0*....
.-.-**.-
*-.-.**.
-***-**0

Generation = 9, Population = 35.
***-1.*.
*0**111*
..1-..**
-1.1.***
.*1.....
.1*-***-
.-*1...*
-**.-*.1

Generation = 10, Population = 31.
*..1*.**
*1..*--.
*.*0....
0*.-.*.*
*.-....*
.-.1***-
.1.*...*
1***1.**

Generation = 11, Population = 35.
**.***..
**..*11.
..*1*...
1.*1..*.
**-....*
.1*-***1
**.....*
**.**.**

Generation = 12, Population = 26.
****..*.
*....**.
*..*..*.
*..-*...
*.1.*..*
.**-.*.*
........
***...**

Generation = 13, Population = 30.
***..**.
*..*****
**..*.*.
*..-**..
*.*.***.
.**1..*.
*......*
.*......

Generation = 14, Population = 22.
****...*
...*...*
**.....*
*..1....
*.*...*.
*.***.**
*.......
........

Generation = 15, Population = 25.
.***....
...*..**
***.....
*.*-....
*.*.****
*.**.***
.*.*....
........

Generation = 16, Population = 22.
..**....
*..*....
*.**....
*.*1.**.
*.*.*..*
*......*
.*.**.*.
........

Generation = 17, Population = 18.
..**....
....*...
*.......
*..-.**.
*.*.**.*
*.*.****
........
........

Generation = 18, Population = 13.
...*....
...*....
.....*..
*..-***.
*......*
....*..*
.....**.
........

*** Life<Cell> 6x3 ***

Generation = 0, Population = 15.
-0-
000
000
000
000
-00

Generation = 1, Population = 6.
-1-
---
1-1
1-1
--1
---

Generation = 2, Population = 12.
0-0
000
*-*
*--
00*
--0

Generation = 3, Population = 12.
111
1-1
*0*
*--
--*
0-1

Generation = 4, Population = 5.
---
---
*-*
*--
-0.
--*

Generation = 5, Population = 4.
---
1-1
.-.
*-1
--.
--.

Generation = 6, Population = 3.
1-1
---
.-.
.--
0-.
--.

Generation = 7, Population = 4.
---
1-1
.-.
.--
-0.
0-.

Generation = 8, Population = 3.
1-1
---
.-.
.0-
--.
--.

Generation = 9, Population = 5.
---
1-1
.0.
.-1
-0.
--.

Generation = 10, Population = 7.
1-1
-0-
.-*
.0-
0-.
-0.

Generation = 11, Population = 5.
-1-
--1
.0*
.--
-0.
--.

Generation = 12, Population = 8.
1--
-0*
.1*
.-1
0-.
-0.

Generation = 13, Population = 3.
--1
--*
.-.
.-*
--.
--.

Generation = 14, Population = 4.
-1*
-0.
.-.
.0.
--.
--.

*** Life<Cell> 4x8 ***

Generation = 0, Population = 18.
--000-0-
00-00---
0-0--00-
00-000-0

Generation = 2, Population = 16.
-0**0-0-
----0-00
----1-*0
0*---010

Generation = 4, Population = 16.
1*.*00*0
0*-00-*-
---1*-.-
*.----*-

Generation = 6, Population = 16.
1..*-0**
0*0--1.-
0-1-.1.1
..-*1-*-

Generation = 8, Population = 12.
.*..10..
-.-1--.-
--*-..*-
.*-****0

Generation = 10, Population = 11.
....*-..
-.01-**-
-0*-...-
..-.****

Generation = 12, Population = 13.
..**.-..
-*0.***1
**.-...*
..1...*.

*** Life<Cell> 7x3 ***

Generation = 0, Population = 8.
00-
0--
00-
-0-
00-
---
---

Generation = 1, Population = 10.
-10
-0-
--0
0-0
1-0
00-
---

Generation = 2, Population = 13.
0-1
010
0-1
1--
-01
-1-
00-

Generation = 3, Population = 11.
11*
1-1
-0*
*--
--*
---
1-0

Generation = 4, Population = 8.
--*
*--
01*
.--
10.
0--
---

Generation = 5, Population = 7.
11.
*--
--.
.-0
-1.
1--
1--

Generation = 6, Population = 6.
-*.
*--
0-.
.--
--.
*--
*0-

Generation = 7, Population = 8.
-..
*--
11.
.--
1-.
*--
*10

Generation = 8, Population = 11.
1..
*--
-*.
*0-
*1.
*-0
*-1

Generation = 9, Population = 11.
*..
*--
1*.
.10
.-*
*11
.-*

Generation = 10, Population = 7.
...
*--
-.*
*--
*1.
.-*
.-*

Generation = 11, Population = 9.
...
.11
-*.
*-0
**.
.-*
.1.

Generation = 12, Population = 7.
...
.-*
-..
*--
*.*
*1*
.-.

Generation = 13, Population = 9.
...
.1.
1..
.10
*.*
*-*
.1.

Generation = 14, Population = 8.
...
.-.
-.*
**-
*.*
*1*
.-.

Generation = 15, Population = 8.
...
.-.
1*.
*.0
..*
*-*
.1.

Generation = 16, Population = 7.
...
.1.
-*.
*.1
..*
.1*
.-.

Generation = 17, Population = 8.
...
.*.
-**
..*
..*
.**
.1.

Generation = 18, Population = 11.
...
.**
1**
..*
..*
.**
.**

Generation = 19, Population = 7.
...
*.*
*..
..*
..*
...
.**

*** Life<Cell> 1x2 ***

Generation = 0, Population = 2.
00

Generation = 1, Population = 2.
11

Generation = 2, Population = 2.
**

Generation = 3, Population = 0.
..

Generation = 4, Population = 0.
..

Generation = 5, Population = 0.
..

Generation = 6, Population = 0.
..

Generation = 7, Population = 0.
..

Generation = 8, Population = 0.
..

Generation = 9, Population = 0.
..

Generation = 10, Population = 0.
..

Generation = 11, Population = 0.
..

Generation = 12, Population = 0.
..

Generation = 13, Population = 0.
..

Generation = 14, Population = 0.
..

*** Life<Cell> 9x1 ***

Generation = 0, Population = 9.
0
0
0
0
0
0
0
0
0

Generation = 3, Population = 4.
1
-
0
-
-
-
0
-
1

Generation = 6, Population = 4.
-
0
-
0
-
0
-
0
-

Generation = 9, Population = 4.
1
-
0
-
-
-
0
-
1

Generation = 12, Population = 4.
-
0
-
0
-
0
-
0
-

*** Life<Cell> 3x9 ***

Generation = 0, Population = 26.
000000000
00000-000
000000000

Generation = 5, Population = 12.
**.*-11.-
1-----1--
**.*-11.-

Generation = 10, Population = 11.
....***.0
---0-0-0-
....***.0

Generation = 15, Population = 2.
........-
1---1----
........-

Generation = 20, Population = 4.
........0
-----0-0-
........0
