*** Life<ConwayCell> 14x50 ***

Generation = 0, Population = 44.
..................................................
.....*............................................
.....................................*............
..........*....*............*...*...**............
..........................*...*..............*....
............................................*.....
...........*.......*.*............................
.......................**.*..................*....
......*...........................................
.*.*..........................*........*..*....*.*
..........................**.....*......*.........
........**.............................*.....*....
.................*.....**.........................
..*..............*....*...*..*.....*..............

Generation = 118, Population = 4.
..................................................
..................................................
....................................**............
....................................**............
..................................................
..................................................
..................................................
..................................................
..................................................
..................................................
..................................................
..................................................
..................................................
..................................................

Generation = 236, Population = 4.
..................................................
..................................................
....................................**............
....................................**............
..................................................
..................................................
..................................................
..................................................
..................................................
..................................................
..................................................
..................................................
..................................................
..................................................

Generation = 354, Population = 4.
..................................................
..................................................
....................................**............
....................................**............
..................................................
..................................................
..................................................
..................................................
..................................................
..................................................
..................................................
..................................................
..................................................
..................................................

Generation = 472, Population = 4.
..................................................
..................................................
....................................**............
....................................**............
..................................................
..................................................
..................................................
..................................................
..................................................
..................................................
..................................................
..................................................
..................................................
..................................................

Generation = 590, Population = 4.
..................................................
..................................................
....................................**............
....................................**............
..................................................
..................................................
..................................................
..................................................
..................................................
..................................................
..................................................
..................................................
..................................................
..................................................

Generation = 708, Population = 4.
..................................................
..................................................
....................................**............
....................................**............
..................................................
..................................................
..................................................
..................................................
..................................................
..................................................
..................................................
..................................................
..................................................
..................................................

Generation = 826, Population = 4.
..................................................
..................................................
....................................**............
....................................**............
..................................................
..................................................
..................................................
..................................................
..................................................
..................................................
..................................................
..................................................
..................................................
..................................................

Generation = 944, Population = 4.
..................................................
..................................................
....................................**............
....................................**............
..................................................
..................................................
..................................................
..................................................
..................................................
..................................................
..................................................
..................................................
..................................................
..................................................

Generation = 1062, Population = 4.
..................................................
..................................................
....................................**............
....................................**............
..................................................
..................................................
..................................................
..................................................
..................................................
..................................................
..................................................
..................................................
..................................................
..................................................

Generation = 1180, Population = 4.
..................................................
..................................................
....................................**............
....................................**............
..................................................
..................................................
..................................................
..................................................
..................................................
..................................................
..................................................
..................................................
..................................................
..................................................

Generation = 1298, Population = 4.
..................................................
..................................................
....................................**............
....................................**............
..................................................
..................................................
..................................................
..................................................
..................................................
..................................................
..................................................
..................................................
..................................................
..................................................

*** Life<ConwayCell> 29x16 ***

Generation = 0, Population = 83.
*..........*....
*...*..**.*.....
.*......*.......
......*.........
*..*....*...*...
..............*.
........**......
................
...*...***.....*
......*.*.......
...**..*....*...
..*....*...*..**
.*...*..*....*.*
....****...*....
.........*......
..........*.**..
..**........**..
*.**............
*..*.**.........
.......**.*..*..
.........*......
.....*......*...
*...............
....**........**
..*.............
*.....*...*.....
........**.....*
...*..*.......*.
.*......*.....*.

Generation = 45, Population = 29.
................
.............**.
.........**..**.
......***.**....
.....*..*.......
....*...*.......
....*....*......
....*...*.......
....*.**........
.....*..........
................
................
................
................
................
................
................
................
................
................
................
................
................
................
.........*......
........*.*.....
........*.*.....
.........*......
................

Generation = 90, Population = 20.
.........**.....
........*..*....
.........**.....
................
................
................
................
....**.**.......
....**.**.......
................
................
................
................
................
................
................
................
................
................
................
................
................
................
................
.........*......
........*.*.....
........*.*.....
.........*......
................

Generation = 135, Population = 20.
.........**.....
........*..*....
.........**.....
................
................
................
................
....**.**.......
....**.**.......
................
................
................
................
................
................
................
................
................
................
................
................
................
................
................
.........*......
........*.*.....
........*.*.....
.........*......
................

Generation = 180, Population = 20.
.........**.....
........*..*....
.........**.....
................
................
................
................
....**.**.......
....**.**.......
................
................
................
................
................
................
................
................
................
................
................
................
................
................
................
.........*......
........*.*.....
........*.*.....
.........*......
................

Generation = 225, Population = 20.
.........**.....
........*..*....
.........**.....
................
................
................
................
....**.**.......
....**.**.......
................
................
................
................
................
................
................
................
................
................
................
................
................
................
................
.........*......
........*.*.....
........*.*.....
.........*......
................

Generation = 270, Population = 20.
.........**.....
........*..*....
.........**.....
................
................
................
................
....**.**.......
....**.**.......
................
................
................
................
................
................
................
................
................
................
................
................
................
................
................
.........*......
........*.*.....
........*.*.....
.........*......
................

Generation = 315, Population = 20.
.........**.....
........*..*....
.........**.....
................
................
................
................
....**.**.......
....**.**.......
................
................
................
................
................
................
................
................
................
................
................
................
................
................
................
.........*......
........*.*.....
........*.*.....
.........*......
................

Generation = 360, Population = 20.
.........**.....
........*..*....
.........**.....
................
................
................
................
....**.**.......
....**.**.......
................
................
................
................
................
................
................
................
................
................
................
................
................
................
................
.........*......
........*.*.....
........*.*.....
.........*......
................

Generation = 405, Population = 20.
.........**.....
........*..*....
.........**.....
................
................
................
................
....**.**.......
....**.**.......
................
................
................
................
................
................
................
................
................
................
................
................
................
................
................
.........*......
........*.*.....
........*.*.....
.........*......
................

Generation = 450, Population = 20.
.........**.....
........*..*....
.........**.....
................
................
................
................
....**.**.......
....**.**.......
................
................
................
................
................
................
................
................
................
................
................
................
................
................
................
.........*......
........*.*.....
........*.*.....
.........*......
................

Generation = 495, Population = 20.
.........**.....
........*..*....
.........**.....
................
................
................
................
....**.**.......
....**.**.......
................
................
................
................
................
................
................
................
................
................
................
................
................
................
................
.........*......
........*.*.....
........*.*.....
.........*......
................

Generation = 540, Population = 20.
.........**.....
........*..*....
.........**.....
................
................
................
................
....**.**.......
....**.**.......
................
................
................
................
................
................
................
................
................
................
................
................
................
................
................
.........*......
........*.*.....
........*.*.....
.........*......
................

Generation = 585, Population = 20.
.........**.....
........*..*....
.........**.....
................
................
................
................
....**.**.......
....**.**.......
................
................
................
................
................
................
................
................
................
................
................
................
................
................
................
.........*......
........*.*.....
........*.*.....
.........*......
................

Generation = 630, Population = 20.
.........**.....
........*..*....
.........**.....
................
................
................
................
....**.**.......
....**.**.......
................
................
................
................
................
................
................
................
................
................
................
................
................
................
................
.........*......
........*.*.....
........*.*.....
.........*......
................

Generation = 675, Population = 20.
.........**.....
........*..*....
.........**.....
................
................
................
................
....**.**.......
....**.**.......
................
................
................
................
................
................
................
................
................
................
................
................
................
................
................
.........*......
........*.*.....
........*.*.....
.........*......
................

Generation = 720, Population = 20.
.........**.....
........*..*....
.........**.....
................
................
................
................
....**.**.......
....**.**.......
................
................
................
................
................
................
................
................
................
................
................
................
................
................
................
.........*......
........*.*.....
........*.*.....
.........*......
................

Generation = 765, Population = 20.
.........**.....
........*..*....
.........**.....
................
................
................
................
....**.**.......
....**.**.......
................
................
................
................
................
................
................
................
................
................
................
................
................
................
................
.........*......
........*.*.....
........*.*.....
.........*......
................

Generation = 810, Population = 20.
.........**.....
........*..*....
.........**.....
................
................
................
................
....**.**.......
....**.**.......
................
................
................
................
................
................
................
................
................
................
................
................
................
................
................
.........*......
........*.*.....
........*.*.....
.........*......
................

Generation = 855, Population = 20.
.........**.....
........*..*....
.........**.....
................
................
................
................
....**.**.......
....**.**.......
................
................
................
................
................
................
................
................
................
................
................
................
................
................
................
.........*......
........*.*.....
........*.*.....
.........*......
................

Generation = 900, Population = 20.
.........**.....
........*..*....
.........**.....
................
................
................
................
....**.**.......
....**.**.......
................
................
................
................
................
................
................
................
................
................
................
................
................
................
................
.........*......
........*.*.....
........*.*.....
.........*......
................

Generation = 945, Population = 20.
.........**.....
........*..*....
.........**.....
................
................
................
................
....**.**.......
....**.**.......
................
................
................
................
................
................
................
................
................
................
................
................
................
................
................
.........*......
........*.*.....
........*.*.....
.........*......
................

Generation = 990, Population = 20.
.........**.....
........*..*....
.........**.....
................
................
................
................
....**.**.......
....**.**.......
................
................
................
................
................
................
................
................
................
................
................
................
................
................
................
.........*......
........*.*.....
........*.*.....
.........*......
................

Generation = 1035, Population = 20.
.........**.....
........*..*....
.........**.....
................
................
................
................
....**.**.......
....**.**.......
................
................
................
................
................
................
................
................
................
................
................
................
................
................
................
.........*......
........*.*.....
........*.*.....
.........*......
................

Generation = 1080, Population = 20.
.........**.....
........*..*....
.........**.....
................
................
................
................
....**.**.......
....**.**.......
................
................
................
................
................
................
................
................
................
................
................
................
................
................
................
.........*......
........*.*.....
........*.*.....
.........*......
................

Generation = 1125, Population = 20.
.........**.....
........*..*....
.........**.....
................
................
................
................
....**.**.......
....**.**.......
................
................
................
................
................
................
................
................
................
................
................
................
................
................
................
.........*......
........*.*.....
........*.*.....
.........*......
................

Generation = 1170, Population = 20.
.........**.....
........*..*....
.........**.....
................
................
................
................
....**.**.......
....**.**.......
................
................
................
................
................
................
................
................
................
................
................
................
................
................
................
.........*......
........*.*.....
........*.*.....
.........*......
................

Generation = 1215, Population = 20.
.........**.....
........*..*....
.........**.....
................
................
................
................
....**.**.......
....**.**.......
................
................
................
................
................
................
................
................
................
................
................
................
................
................
................
.........*......
........*.*.....
........*.*.....
.........*......
................

Generation = 1260, Population = 20.
.........**.....
........*..*....
.........**.....
................
................
................
................
....**.**.......
....**.**.......
................
................
................
................
................
................
................
................
................
................
................
................
................
................
................
.........*......
........*.*.....
........*.*.....
.........*......
................

Generation = 1305, Population = 20.
.........**.....
........*..*....
.........**.....
................
................
................
................
....**.**.......
....**.**.......
................
................
................
................
................
................
................
................
................
................
................
................
................
................
................
.........*......
........*.*.....
........*.*.....
.........*......
................

Generation = 1350, Population = 20.
.........**.....
........*..*....
.........**.....
................
................
................
................
....**.**.......
....**.**.......
................
................
................
................
................
................
................
................
................
................
................
................
................
................
................
.........*......
........*.*.....
........*.*.....
.........*......
................

Generation = 1395, Population = 20.
.........**.....
........*..*....
.........**.....
................
................
................
................
....**.**.......
....**.**.......
................
................
................
................
................
................
................
................
................
................
................
................
................
................
................
.........*......
........*.*.....
........*.*.....
.........*......
................

Generation = 1440, Population = 20.
.........**.....
........*..*....
.........**.....
................
................
................
................
....**.**.......
....**.**.......
................
................
................
................
................
................
................
................
................
................
................
................
................
................
................
.........*......
........*.*.....
........*.*.....
.........*......
................

Generation = 1485, Population = 20.
.........**.....
........*..*....
.........**.....
................
................
................
................
....**.**.......
....**.**.......
................
................
................
................
................
................
................
................
................
................
................
................
................
................
................
.........*......
........*.*.....
........*.*.....
.........*......
................

Generation = 1530, Population = 20.
.........**.....
........*..*....
.........**.....
................
................
................
................
....**.**.......
....**.**.......
................
................
................
................
................
................
................
................
................
................
................
................
................
................
................
.........*......
........*.*.....
........*.*.....
.........*......
................

Generation = 1575, Population = 20.
.........**.....
........*..*....
.........**.....
................
................
................
................
....**.**.......
....**.**.......
................
................
................
................
................
................
................
................
................
................
................
................
................
................
................
.........*......
........*.*.....
........*.*.....
.........*......
................

Generation = 1620, Population = 20.
.........**.....
........*..*....
.........**.....
................
................
................
................
....**.**.......
....**.**.......
................
................
................
................
................
................
................
................
................
................
................
................
................
................
................
.........*......
........*.*.....
........*.*.....
.........*......
................

Generation = 1665, Population = 20.
.........**.....
........*..*....
.........**.....
................
................
................
................
....**.**.......
....**.**.......
................
................
................
................
................
................
................
................
................
................
................
................
................
................
................
.........*......
........*.*.....
........*.*.....
.........*......
................

Generation = 1710, Population = 20.
.........**.....
........*..*....
.........**.....
................
................
................
................
....**.**.......
....**.**.......
................
................
................
................
................
................
................
................
................
................
................
................
................
................
................
.........*......
........*.*.....
........*.*.....
.........*......
................

Generation = 1755, Population = 20.
.........**.....
........*..*....
.........**.....
................
................
................
................
....**.**.......
....**.**.......
................
................
................
................
................
................
................
................
................
................
................
................
................
................
................
.........*......
........*.*.....
........*.*.....
.........*......
................

Generation = 1800, Population = 20.
.........**.....
........*..*....
.........**.....
................
................
................
................
....**.**.......
....**.**.......
................
................
................
................
................
................
................
................
................
................
................
................
................
................
................
.........*......
........*.*.....
........*.*.....
.........*......
................

Generation = 1845, Population = 20.
.........**.....
........*..*....
.........**.....
................
................
................
................
....**.**.......
....**.**.......
................
................
................
................
................
................
................
................
................
................
................
................
................
................
................
.........*......
........*.*.....
........*.*.....
.........*......
................

Generation = 1890, Population = 20.
.........**.....
........*..*....
.........**.....
................
................
................
................
....**.**.......
....**.**.......
................
................
................
................
................
................
................
................
................
................
................
................
................
................
................
.........*......
........*.*.....
........*.*.....
.........*......
................

*** Life<ConwayCell> 9x49 ***

Generation = 0, Population = 84.
.....*.*...*..........*....**.....*.....**......*
*.*.*..*...*....*.**..*.*...............*........
.*..........*..*......*..*.*...............**....
....*..*......***..........*.*...........*.**...*
*....**.............*.......*...*..*..*........*.
.**...*......**...*.*..........**....*...*.......
..*..*...**......................*....*.*.*.*..*.
**.**........*....*...*...............*..........
.........*.*........*.........*.*.............*..

Generation = 174, Population = 17.
.......**.............*..........................
.......**............*.*.........................
......................**.........................
..................**.............................
..................**.............................
...............................**................
...............................**................
.................................................
.................................................

Generation = 348, Population = 17.
.......**.............*..........................
.......**............*.*.........................
......................**.........................
..................**.............................
..................**.............................
...............................**................
...............................**................
.................................................
.................................................

Generation = 522, Population = 17.
.......**.............*..........................
.......**............*.*.........................
......................**.........................
..................**.............................
..................**.............................
...............................**................
...............................**................
.................................................
.................................................

Generation = 696, Population = 17.
.......**.............*..........................
.......**............*.*.........................
......................**.........................
..................**.............................
..................**.............................
...............................**................
...............................**................
.................................................
.................................................

Generation = 870, Population = 17.
.......**.............*..........................
.......**............*.*.........................
......................**.........................
..................**.............................
..................**.............................
...............................**................
...............................**................
.................................................
.................................................

Generation = 1044, Population = 17.
.......**.............*..........................
.......**............*.*.........................
......................**.........................
..................**.............................
..................**.............................
...............................**................
...............................**................
.................................................
.................................................

Generation = 1218, Population = 17.
.......**.............*..........................
.......**............*.*.........................
......................**.........................
..................**.............................
..................**.............................
...............................**................
...............................**................
.................................................
.................................................

Generation = 1392, Population = 17.
.......**.............*..........................
.......**............*.*.........................
......................**.........................
..................**.............................
..................**.............................
...............................**................
...............................**................
.................................................
.................................................

Generation = 1566, Population = 17.
.......**.............*..........................
.......**............*.*.........................
......................**.........................
..................**.............................
..................**.............................
...............................**................
...............................**................
.................................................
.................................................

*** Life<ConwayCell> 14x11 ***

Generation = 0, Population = 63.
...**.*...*
.***.**....
..*...***..
..**.**.**.
*.**..*.***
**.*.**..*.
*..*.......
...*.*..*..
..***..****
..........*
......***.*
*..***..*..
...***.*..*
*.***......

Generation = 176, Population = 0.
...........
...........
...........
...........
...........
...........
...........
...........
...........
...........
...........
...........
...........
...........

Generation = 352, Population = 0.
...........
...........
...........
...........
...........
...........
...........
...........
...........
...........
...........
...........
...........
...........

*** Life<ConwayCell> 2x22 ***

Generation = 0, Population = 42.
**********************
***.******.***********

Generation = 148, Population = 0.
......................
......................

Generation = 296, Population = 0.
......................
......................

*** Life<ConwayCell> 29x8 ***

Generation = 0, Population = 50.
.*......
.....*..
........
*.......
*.....*.
.......*
**...*.*
..*..**.
*...*...
...*.*..
..***...
.*....*.
..***...
....*.**
..*.....
.**.....
........
.**....*
.......*
*..*....
...*....
...*....
.*..*.*.
.*....*.
.*..*...
......*.
..*...*.
........
*.......

Generation = 43, Population = 13.
........
........
........
........
........
........
........
........
........
........
...**...
..*..*..
...**...
........
........
........
........
........
........
........
........
........
........
........
.....*..
....*.*.
....*..*
.....**.
........

Generation = 86, Population = 13.
........
........
........
........
........
........
........
........
........
........
...**...
..*..*..
...**...
........
........
........
........
........
........
........
........
........
........
........
.....*..
....*.*.
....*..*
.....**.
........

Generation = 129, Population = 13.
........
........
........
........
........
........
........
........
........
........
...**...
..*..*..
...**...
........
........
........
........
........
........
........
........
........
........
........
.....*..
....*.*.
....*..*
.....**.
........

Generation = 172, Population = 13.
........
........
........
........
........
........
........
........
........
........
...**...
..*..*..
...**...
........
........
........
........
........
........
........
........
........
........
........
.....*..
....*.*.
....*..*
.....**.
........

Generation = 215, Population = 13.
........
........
........
........
........
........
........
........
........
........
...**...
..*..*..
...**...
........
........
........
........
........
........
........
........
........
........
........
.....*..
....*.*.
....*..*
.....**.
........

Generation = 258, Population = 13.
........
........
........
........
........
........
........
........
........
........
...**...
..*..*..
...**...
........
........
........
........
........
........
........
........
........
........
........
.....*..
....*.*.
....*..*
.....**.
........

Generation = 301, Population = 13.
........
........
........
........
........
........
........
........
........
........
...**...
..*..*..
...**...
........
........
........
........
........
........
........
........
........
........
........
.....*..
....*.*.
....*..*
.....**.
........

Generation = 344, Population = 13.
........
........
........
........
........
........
........
........
........
........
...**...
..*..*..
...**...
........
........
........
........
........
........
........
........
........
........
........
.....*..
....*.*.
....*..*
.....**.
........

Generation = 387, Population = 13.
........
........
........
........
........
........
........
........
........
........
...**...
..*..*..
...**...
........
........
........
........
........
........
........
........
........
........
........
.....*..
....*.*.
....*..*
.....**.
........

Generation = 430, Population = 13.
........
........
........
........
........
........
........
........
........
........
...**...
..*..*..
...**...
........
........
........
........
........
........
........
........
........
........
........
.....*..
....*.*.
....*..*
.....**.
........

Generation = 473, Population = 13.
........
........
........
........
........
........
........
........
........
........
...**...
..*..*..
...**...
........
........
........
........
........
........
........
........
........
........
........
.....*..
....*.*.
....*..*
.....**.
........

Generation = 516, Population = 13.
........
........
........
........
........
........
........
........
........
........
...**...
..*..*..
...**...
........
........
........
........
........
........
........
........
........
........
........
.....*..
....*.*.
....*..*
.....**.
........

Generation = 559, Population = 13.
........
........
........
........
........
........
........
........
........
........
...**...
..*..*..
...**...
........
........
........
........
........
........
........
........
........
........
........
.....*..
....*.*.
....*..*
.....**.
........

Generation = 602, Population = 13.
........
........
........
........
........
........
........
........
........
........
...**...
..*..*..
...**...
........
........
........
........
........
........
........
........
........
........
........
.....*..
....*.*.
....*..*
.....**.
........

*** Life<ConwayCell> 9x8 ***

Generation = 0, Population = 36.
...**.*.
*.**...*
*.*.*.**
.****...
.***...*
..**.*.*
*.*.****
....*.*.
.**..**.

Generation = 65, Population = 3.
........
..***...
........
........
........
........
........
........
........

Generation = 130, Population = 3.
...*....
...*....
...*....
........
........
........
........
........
........

Generation = 195, Population = 3.
........
..***...
........
........
........
........
........
........
........

Generation = 260, Population = 3.
...*....
...*....
...*....
........
........
........
........
........
........

Generation = 325, Population = 3.
........
..***...
........
........
........
........
........
........
........

Generation = 390, Population = 3.
...*....
...*....
...*....
........
........
........
........
........
........

Generation = 455, Population = 3.
........
..***...
........
........
........
........
........
........
........

Generation = 520, Population = 3.
...*....
...*....
...*....
........
........
........
........
........
........

Generation = 585, Population = 3.
........
..***...
........
........
........
........
........
........
........

Generation = 650, Population = 3.
...*....
...*....
...*....
........
........
........
........
........
........

Generation = 715, Population = 3.
........
..***...
........
........
........
........
........
........
........

Generation = 780, Population = 3.
...*....
...*....
...*....
........
........
........
........
........
........

Generation = 845, Population = 3.
........
..***...
........
........
........
........
........
........
........

Generation = 910, Population = 3.
...*....
...*....
...*....
........
........
........
........
........
........

Generation = 975, Population = 3.
........
..***...
........
........
........
........
........
........
........

Generation = 1040, Population = 3.
...*....
...*....
...*....
........
........
........
........
........
........

Generation = 1105, Population = 3.
........
..***...
........
........
........
........
........
........
........

Generation = 1170, Population = 3.
...*....
...*....
...*....
........
........
........
........
........
........

Generation = 1235, Population = 3.
........
..***...
........
........
........
........
........
........
........

Generation = 1300, Population = 3.
...*....
...*....
...*....
........
........
........
........
........
........

Generation = 1365, Population = 3.
........
..***...
........
........
........
........
........
........
........

Generation = 1430, Population = 3.
...*....
...*....
...*....
........
........
........
........
........
........

Generation = 1495, Population = 3.
........
..***...
........
........
........
........
........
........
........

*** Life<ConwayCell> 13x16 ***

Generation = 0, Population = 126.
*..**...*..**.**
*.***.***.*.*.*.
*..*.**********.
.***.**..***.**.
.**..**.**.**...
.**********.*.**
.****....***.***
**.*.********.**
..***.**.**..***
..**.***.****...
**...*.**.**.*..
.*..*...*...*.*.
.***.***..****..

Generation = 104, Population = 17.
.*..............
*.*.............
*.*.............
.*............**
..............**
................
................
................
................
................
..*.............
..*...**........
..*...**........

Generation = 208, Population = 17.
.*..............
*.*.............
*.*.............
.*............**
..............**
................
................
................
................
................
..*.............
..*...**........
..*...**........

Generation = 312, Population = 17.
.*..............
*.*.............
*.*.............
.*............**
..............**
................
................
................
................
................
..*.............
..*...**........
..*...**........

Generation = 416, Population = 17.
.*..............
*.*.............
*.*.............
.*............**
..............**
................
................
................
................
................
..*.............
..*...**........
..*...**........

Generation = 520, Population = 17.
.*..............
*.*.............
*.*.............
.*............**
..............**
................
................
................
................
................
..*.............
..*...**........
..*...**........

Generation = 624, Population = 17.
.*..............
*.*.............
*.*.............
.*............**
..............**
................
................
................
................
................
..*.............
..*...**........
..*...**........

Generation = 728, Population = 17.
.*..............
*.*.............
*.*.............
.*............**
..............**
................
................
................
................
................
..*.............
..*...**........
..*...**........

Generation = 832, Population = 17.
.*..............
*.*.............
*.*.............
.*............**
..............**
................
................
................
................
................
..*.............
..*...**........
..*...**........

Generation = 936, Population = 17.
.*..............
*.*.............
*.*.............
.*............**
..............**
................
................
................
................
................
..*.............
..*...**........
..*...**........

Generation = 1040, Population = 17.
.*..............
*.*.............
*.*.............
.*............**
..............**
................
................
................
................
................
..*.............
..*...**........
..*...**........

Generation = 1144, Population = 17.
.*..............
*.*.............
*.*.............
.*............**
..............**
................
................
................
................
................
..*.............
..*...**........
..*...**........

Generation = 1248, Population = 17.
.*..............
*.*.............
*.*.............
.*............**
..............**
................
................
................
................
................
..*.............
..*...**........
..*...**........

Generation = 1352, Population = 17.
.*..............
*.*.............
*.*.............
.*............**
..............**
................
................
................
................
................
..*.............
..*...**........
..*...**........

Generation = 1456, Population = 17.
.*..............
*.*.............
*.*.............
.*............**
..............**
................
................
................
................
................
..*.............
..*...**........
..*...**........

Generation = 1560, Population = 17.
.*..............
*.*.............
*.*.............
.*............**
..............**
................
................
................
................
................
..*.............
..*...**........
..*...**........

Generation = 1664, Population = 17.
.*..............
*.*.............
*.*.............
.*............**
..............**
................
................
................
................
................
..*.............
..*...**........
..*...**........

Generation = 1768, Population = 17.
.*..............
*.*.............
*.*.............
.*............**
..............**
................
................
................
................
................
..*.............
..*...**........
..*...**........

*** Life<ConwayCell> 1x40 ***

Generation = 0, Population = 40.
****************************************

Generation = 149, Population = 0.
........................................

Generation = 298, Population = 0.
........................................

*** Life<ConwayCell> 30x10 ***

Generation = 0, Population = 67.
....**...*
*.*.*....*
*..*...*.*
*.........
....*..*..
.***..**.*
..*.**....
..*.......
*.*..*.**.
*.*......*
*......*..
..........
*......*.*
..........
.....*....
.**......*
.......**.
..........
.*.*......
*.*.......
.*........
...*.....*
...*.**...
.*.*..**..
.*..*.....
....*....*
.....*....
.*........
*..*.*....
.........*

Generation = 101, Population = 11.
..........
..........
..........
..........
..........
..........
..........
..........
..........
..........
..........
..........
..........
..........
..........
..........
..........
..........
..........
........*.
.......*.*
........**
..........
....**....
...*..*...
....**....
..........
..........
..........
..........

Generation = 202, Population = 11.
..........
..........
..........
..........
..........
..........
..........
..........
..........
..........
..........
..........
..........
..........
..........
..........
..........
..........
..........
........*.
.......*.*
........**
..........
....**....
...*..*...
....**....
..........
..........
..........
..........

Generation = 303, Population = 11.
..........
..........
..........
..........
..........
..........
..........
..........
..........
..........
..........
..........
..........
..........
..........
..........
..........
..........
..........
........*.
.......*.*
........**
..........
....**....
...*..*...
....**....
..........
..........
..........
..........

*** Life<ConwayCell> 8x18 ***

Generation = 0, Population = 96.
.**.***.***.***.**
*********..*****.*
****.**********.**
*.*.*.*....**...*.
*....******..*..*.
***..*.***.******.
.***.*.*..*.***..*
*****.**..*.*.****

Generation = 175, Population = 12.
.*................
*.*...............
**................
..................
...**.............
..*..*............
..*.*.............
...*..............

Generation = 350, Population = 12.
.*................
*.*...............
**................
..................
...**.............
..*..*............
..*.*.............
...*..............

Generation = 525, Population = 12.
.*................
*.*...............
**................
..................
...**.............
..*..*............
..*.*.............
...*..............

Generation = 700, Population = 12.
.*................
*.*...............
**................
..................
...**.............
..*..*............
..*.*.............
...*..............

Generation = 875, Population = 12.
.*................
*.*...............
**................
..................
...**.............
..*..*............
..*.*.............
...*..............

Generation = 1050, Population = 12.
.*................
*.*...............
**................
..................
...**.............
..*..*............
..*.*.............
...*..............

Generation = 1225, Population = 12.
.*................
*.*...............
**................
..................
...**.............
..*..*............
..*.*.............
...*..............

Generation = 1400, Population = 12.
.*................
*.*...............
**................
..................
...**.............
..*..*............
..*.*.............
...*..............

Generation = 1575, Population = 12.
.*................
*.*...............
**................
..................
...**.............
..*..*............
..*.*.............
...*..............

*** Life<ConwayCell> 19x10 ***

Generation = 0, Population = 87.
.**.*..*.*
.**.*...**
*.*.....**
.**.*..**.
*.*..*..**
..***.****
..*..*.**.
..***.....
*.*..*.**.
*...*.*.**
.*......**
****..*...
.**.**....
...*.*.***
.*.*..*.*.
*.*...***.
..*.*..*..
.**....*..
***.****..

Generation = 40, Population = 15.
..........
.....**...
....*..*..
....*.*...
.....*....
..........
..........
..........
........**
........**
..........
..........
......**..
......**..
..........
..........
..........
..........
..........

Generation = 80, Population = 15.
..........
.....**...
....*..*..
....*.*...
.....*....
..........
..........
..........
........**
........**
..........
..........
......**..
......**..
..........
..........
..........
..........
..........

Generation = 120, Population = 15.
..........
.....**...
....*..*..
....*.*...
.....*....
..........
..........
..........
........**
........**
..........
..........
......**..
......**..
..........
..........
..........
..........
..........

Generation = 160, Population = 15.
..........
.....**...
....*..*..
....*.*...
.....*....
..........
..........
..........
........**
........**
..........
..........
......**..
......**..
..........
..........
..........
..........
..........

Generation = 200, Population = 15.
..........
.....**...
....*..*..
....*.*...
.....*....
..........
..........
..........
........**
........**
..........
..........
......**..
......**..
..........
..........
..........
..........
..........

Generation = 240, Population = 15.
..........
.....**...
....*..*..
....*.*...
.....*....
..........
..........
..........
........**
........**
..........
..........
......**..
......**..
..........
..........
..........
..........
..........

Generation = 280, Population = 15.
..........
.....**...
....*..*..
....*.*...
.....*....
..........
..........
..........
........**
........**
..........
..........
......**..
......**..
..........
..........
..........
..........
..........

Generation = 320, Population = 15.
..........
.....**...
....*..*..
....*.*...
.....*....
..........
..........
..........
........**
........**
..........
..........
......**..
......**..
..........
..........
..........
..........
..........

Generation = 360, Population = 15.
..........
.....**...
....*..*..
....*.*...
.....*....
..........
..........
..........
........**
........**
..........
..........
......**..
......**..
..........
..........
..........
..........
..........

Generation = 400, Population = 15.
..........
.....**...
....*..*..
....*.*...
.....*....
..........
..........
..........
........**
........**
..........
..........
......**..
......**..
..........
..........
..........
..........
..........

Generation = 440, Population = 15.
..........
.....**...
....*..*..
....*.*...
.....*....
..........
..........
..........
........**
........**
..........
..........
......**..
......**..
..........
..........
..........
..........
..........

*** Life<ConwayCell> 6x35 ***

Generation = 0, Population = 65.
.....*.*....**.*...*..*.*.....****.
.*.*.*.*.**..*.*.*..*.......**.*.*.
..*.......*.*......*.........*.....
......*.*...*........*.....******.*
..**..***.....*.......****.**....**
**.*.......*...*.*...*.....**......

Generation = 126, Population = 11.
.............................**....
........**..................*..*...
........**..................*.*....
.............................*.....
...................................
...................................

Generation = 252, Population = 11.
.............................**....
........**..................*..*...
........**..................*.*....
.............................*.....
...................................
...................................

*** Life<ConwayCell> 21x14 ***

Generation = 0, Population = 112.
*...**..*.....
..*..*.*.*...*
............**
*.**.*...**.**
...*.*..*.*...
.*...*.*.*.*..
.*.*..*.*..**.
.*.*.....****.
..*....*****.*
.*.**.*.***...
*....*.......*
**..***..*....
**.*.**..*.*.*
..***....**..*
.*.....*.**.*.
...*.*.***.*..
....***..***..
*.*..**.*.....
...*.**.*.**..
.....**....**.
**....*.......

Generation = 33, Population = 28.
..............
..............
..........**..
..........**..
..............
.......**.....
.......**.....
..............
.........*....
......***.*...
.....*.....*..
......**..*...
........***...
..............
..............
..............
...........*..
..........*.*.
.........*..*.
..........**..
..............

Generation = 66, Population = 17.
..............
..............
..........**..
..........**..
..............
..............
..............
..............
..............
.....**.......
....*..*......
.....**.......
..............
..............
..............
..............
...........*..
..........*.*.
.........*..*.
..........**..
..............

Generation = 99, Population = 17.
..............
..............
..........**..
..........**..
..............
..............
..............
..............
..............
.....**.......
....*..*......
.....**.......
..............
..............
..............
..............
...........*..
..........*.*.
.........*..*.
..........**..
..............

Generation = 132, Population = 17.
..............
..............
..........**..
..........**..
..............
..............
..............
..............
..............
.....**.......
....*..*......
.....**.......
..............
..............
..............
..............
...........*..
..........*.*.
.........*..*.
..........**..
..............

Generation = 165, Population = 17.
..............
..............
..........**..
..........**..
..............
..............
..............
..............
..............
.....**.......
....*..*......
.....**.......
..............
..............
..............
..............
...........*..
..........*.*.
.........*..*.
..........**..
..............

Generation = 198, Population = 17.
..............
..............
..........**..
..........**..
..............
..............
..............
..............
..............
.....**.......
....*..*......
.....**.......
..............
..............
..............
..............
...........*..
..........*.*.
.........*..*.
..........**..
..............

Generation = 231, Population = 17.
..............
..............
..........**..
..........**..
..............
..............
..............
..............
..............
.....**.......
....*..*......
.....**.......
..............
..............
..............
..............
...........*..
..........*.*.
.........*..*.
..........**..
..............

Generation = 264, Population = 17.
..............
..............
..........**..
..........**..
..............
..............
..............
..............
..............
.....**.......
....*..*......
.....**.......
..............
..............
..............
..............
...........*..
..........*.*.
.........*..*.
..........**..
..............

Generation = 297, Population = 17.
..............
..............
..........**..
..........**..
..............
..............
..............
..............
..............
.....**.......
....*..*......
.....**.......
..............
..............
..............
..............
...........*..
..........*.*.
.........*..*.
..........**..
..............

Generation = 330, Population = 17.
..............
..............
..........**..
..........**..
..............
..............
..............
..............
..............
.....**.......
....*..*......
.....**.......
..............
..............
..............
..............
...........*..
..........*.*.
.........*..*.
..........**..
..............

Generation = 363, Population = 17.
..............
..............
..........**..
..........**..
..............
..............
..............
..............
..............
.....**.......
....*..*......
.....**.......
..............
..............
..............
..............
...........*..
..........*.*.
.........*..*.
..........**..
..............

Generation = 396, Population = 17.
..............
..............
..........**..
..........**..
..............
..............
..............
..............
..............
.....**.......
....*..*......
.....**.......
..............
..............
..............
..............
...........*..
..........*.*.
.........*..*.
..........**..
..............

Generation = 429, Population = 17.
..............
..............
..........**..
..........**..
..............
..............
..............
..............
..............
.....**.......
....*..*......
.....**.......
..............
..............
..............
..............
...........*..
..........*.*.
.........*..*.
..........**..
..............

Generation = 462, Population = 17.
..............
..............
..........**..
..........**..
..............
..............
..............
..............
..............
.....**.......
....*..*......
.....**.......
..............
..............
..............
..............
...........*..
..........*.*.
.........*..*.
..........**..
..............

Generation = 495, Population = 17.
..............
..............
..........**..
..........**..
..............
..............
..............
..............
..............
.....**.......
....*..*......
.....**.......
..............
..............
..............
..............
...........*..
..........*.*.
.........*..*.
..........**..
..............

Generation = 528, Population = 17.
..............
..............
..........**..
..........**..
..............
..............
..............
..............
..............
.....**.......
....*..*......
.....**.......
..............
..............
..............
..............
...........*..
..........*.*.
.........*..*.
..........**..
..............

Generation = 561, Population = 17.
..............
..............
..........**..
..........**..
..............
..............
..............
..............
..............
.....**.......
....*..*......
.....**.......
..............
..............
..............
..............
...........*..
..........*.*.
.........*..*.
..........**..
..............

*** Life<ConwayCell> 29x49 ***

Generation = 0, Population = 143.
...............*........*...**.*....*....*.......
.......*....*..........*.*....*..*....*....*..*..
.*.................*.........*..................*
...........*..................................**.
..........*.......*..............................
.*................*......*................*...*..
.*..*.................*...........*.......*......
....*...........*..**....*......................*
.......*......*.........*.................*......
.*.....*..**..........*.........*....*.......*...
........*......*..............*......*.........*.
...........**........................*..*......*.
..**.............*................*..............
...............*.*....*..*.....*...............*.
*..............*............*.................*..
.**.........**..*.*............*...........*.....
.*.....*........*.......*....**......*.........*.
.........*..*....*......................*....*...
*......................*.........................
.*............................................*..
.......................................*.*.......
..................*........*.......*.....*.....*.
*.*........*.....*.*...*.........................
............*..*........*........................
.....*...............*...*.......................
............*...................*................
.*........*.............*.....*.**...............
..........*.................*.*..........*.......
..........**..*..**.*.........*.............**..*

Generation = 64, Population = 52.
.............................**..................
.............................**..................
.................................................
..............................................**.
..............................................**.
.................................................
.................................................
.................................................
.................................................
.....................................*...........
.....................................*...........
.....................................*...........
.................................................
**.....................**........................
*.*....................**........................
*.*..............**....*.*.......................
.*...............**..............................
.................................................
.................................................
.................................................
.................................................
.................................................
......................**.........................
........................*........................
....................**.**........................
...................***.**........................
...................*...**........................
.........**........*...*.........................
.........**.........***..........................

Generation = 128, Population = 37.
.............................**..................
.............................**..................
.................................................
..............................................**.
..............................................**.
.................................................
.................................................
.................................................
.................................................
.....................................*...........
.....................................*...........
.....................................*...........
.................................................
**...............................................
*.*..............................................
*.*..............**..............................
.*...............**..............................
.................................................
.................................................
.................................................
.................................................
.................................................
............................**...................
............................**...................
.......................***.......................
.................................................
..................**.............................
.........**.......**.............................
.........**......................................

Generation = 192, Population = 37.
.............................**..................
.............................**..................
.................................................
..............................................**.
..............................................**.
.................................................
.................................................
.................................................
.................................................
.....................................*...........
.....................................*...........
.....................................*...........
.................................................
**...............................................
*.*..............................................
*.*..............**..............................
.*...............**..............................
.................................................
.................................................
.................................................
.................................................
.................................................
............................**...................
............................**...................
.......................***.......................
.................................................
..................**.............................
.........**.......**.............................
.........**......................................

Generation = 256, Population = 37.
.............................**..................
.............................**..................
.................................................
..............................................**.
..............................................**.
.................................................
.................................................
.................................................
.................................................
.....................................*...........
.....................................*...........
.....................................*...........
.................................................
**...............................................
*.*..............................................
*.*..............**..............................
.*...............**..............................
.................................................
.................................................
.................................................
.................................................
.................................................
............................**...................
............................**...................
.......................***.......................
.................................................
..................**.............................
.........**.......**.............................
.........**......................................

Generation = 320, Population = 37.
.............................**..................
.............................**..................
.................................................
..............................................**.
..............................................**.
.................................................
.................................................
.................................................
.................................................
.....................................*...........
.....................................*...........
.....................................*...........
.................................................
**...............................................
*.*..............................................
*.*..............**..............................
.*...............**..............................
.................................................
.................................................
.................................................
.................................................
.................................................
............................**...................
............................**...................
.......................***.......................
.................................................
..................**.............................
.........**.......**.............................
.........**......................................
